solid OpenSCAD_Model
  facet normal -1 0 0
    outer loop
      vertex -2.96306 0 -0.469303
      vertex -2.96306 0 50
      vertex -2.96306 30 -0.469303
    endloop
  endfacet
  facet normal -1 0 0
    outer loop
      vertex -2.96306 30 -0.469303
      vertex -2.96306 0 50
      vertex -2.96306 30 50
    endloop
  endfacet
  facet normal -0.987688 -0.156435 0
    outer loop
      vertex -2.96306 0 -0.469303
      vertex -2.81804 -0.915637 -0.469303
      vertex -2.96306 0 50
    endloop
  endfacet
  facet normal -0.987688 -0.156435 0
    outer loop
      vertex -2.96306 0 50
      vertex -2.81804 -0.915637 -0.469303
      vertex -2.81804 -0.915637 50
    endloop
  endfacet
  facet normal -0.940447 -0.148953 -0.305569
    outer loop
      vertex -2.81804 -0.915637 -0.469303
      vertex -2.96306 0 -0.469303
      vertex -2.54219 -0.826008 -1.36197
    endloop
  endfacet
  facet normal -0.940447 -0.148952 -0.305569
    outer loop
      vertex -2.54219 -0.826008 -1.36197
      vertex -2.96306 0 -0.469303
      vertex -2.67302 0 -1.36197
    endloop
  endfacet
  facet normal -0.951057 0 -0.309017
    outer loop
      vertex -2.96306 0 -0.469303
      vertex -2.96306 30 -0.469303
      vertex -2.67302 0 -1.36197
    endloop
  endfacet
  facet normal -0.951057 0 -0.309017
    outer loop
      vertex -2.67302 0 -1.36197
      vertex -2.96306 30 -0.469303
      vertex -2.67302 30 -1.36197
    endloop
  endfacet
  facet normal -0.987688 0.156435 0
    outer loop
      vertex -2.96306 30 -0.469303
      vertex -2.96306 30 50
      vertex -2.81804 30.9156 -0.469303
    endloop
  endfacet
  facet normal -0.987688 0.156435 0
    outer loop
      vertex -2.81804 30.9156 -0.469303
      vertex -2.96306 30 50
      vertex -2.81804 30.9156 50
    endloop
  endfacet
  facet normal -0.940447 0.148953 -0.305569
    outer loop
      vertex -2.67302 30 -1.36197
      vertex -2.96306 30 -0.469303
      vertex -2.81804 30.9156 -0.469303
    endloop
  endfacet
  facet normal 0 0 1
    outer loop
      vertex -2.96306 30 50
      vertex -2.96306 0 50
      vertex -2.81804 -0.915637 50
    endloop
  endfacet
  facet normal 0 0 1
    outer loop
      vertex -1.74165 -2.39717 50
      vertex -2.96306 30 50
      vertex -2.39717 -1.74165 50
    endloop
  endfacet
  facet normal 0 0 1
    outer loop
      vertex -2.39717 -1.74165 50
      vertex -2.96306 30 50
      vertex -2.81804 -0.915637 50
    endloop
  endfacet
  facet normal 0 0 1
    outer loop
      vertex -1.8 10 50
      vertex -2.96306 30 50
      vertex -1.74165 -2.39717 50
    endloop
  endfacet
  facet normal 0 0 1
    outer loop
      vertex -1.8 11.8 50
      vertex 0 11.8 50
      vertex -2.96306 30 50
    endloop
  endfacet
  facet normal 0 0 1
    outer loop
      vertex 55 0 50
      vertex 21.5 0 50
      vertex 55 -2.96306 50
    endloop
  endfacet
  facet normal 0 0 1
    outer loop
      vertex 55 0 50
      vertex 55 -2.96306 50
      vertex 55.9156 -2.81804 50
    endloop
  endfacet
  facet normal 0 0 1
    outer loop
      vertex 55 0 50
      vertex 55.9156 -2.81804 50
      vertex 56.7416 -2.39717 50
    endloop
  endfacet
  facet normal 0 0 1
    outer loop
      vertex 56.8 11.8 50
      vertex 56.8 10 50
      vertex 57.9631 0 50
    endloop
  endfacet
  facet normal 0 0 1
    outer loop
      vertex 57.3972 31.7416 50
      vertex -2.96306 30 50
      vertex 57.818 30.9156 50
    endloop
  endfacet
  facet normal 0 0 1
    outer loop
      vertex 56.7416 32.3972 50
      vertex -2.96306 30 50
      vertex 57.3972 31.7416 50
    endloop
  endfacet
  facet normal 0 0 1
    outer loop
      vertex 55.9156 32.818 50
      vertex -2.96306 30 50
      vertex 56.7416 32.3972 50
    endloop
  endfacet
  facet normal 0 0 1
    outer loop
      vertex 55 32.9631 50
      vertex -2.96306 30 50
      vertex 55.9156 32.818 50
    endloop
  endfacet
  facet normal 0 0 1
    outer loop
      vertex 0 32.9631 50
      vertex -2.96306 30 50
      vertex 55 32.9631 50
    endloop
  endfacet
  facet normal 0 0 1
    outer loop
      vertex -0.915637 32.818 50
      vertex -2.96306 30 50
      vertex 0 32.9631 50
    endloop
  endfacet
  facet normal 0 0 1
    outer loop
      vertex -1.74165 32.3972 50
      vertex -2.96306 30 50
      vertex -0.915637 32.818 50
    endloop
  endfacet
  facet normal 0 0 1
    outer loop
      vertex -2.39717 31.7416 50
      vertex -2.96306 30 50
      vertex -1.74165 32.3972 50
    endloop
  endfacet
  facet normal 0 0 1
    outer loop
      vertex -2.81804 30.9156 50
      vertex -2.96306 30 50
      vertex -2.39717 31.7416 50
    endloop
  endfacet
  facet normal 0 0 1
    outer loop
      vertex -0.915637 -2.81804 50
      vertex -1.8 10 50
      vertex -1.74165 -2.39717 50
    endloop
  endfacet
  facet normal 0 0 1
    outer loop
      vertex 55 0 50
      vertex 56.7416 -2.39717 50
      vertex 57.3972 -1.74165 50
    endloop
  endfacet
  facet normal 0 0 1
    outer loop
      vertex 57.818 30.9156 50
      vertex -2.96306 30 50
      vertex 0 30 50
    endloop
  endfacet
  facet normal 0 0 1
    outer loop
      vertex 57.818 30.9156 50
      vertex 55 30 50
      vertex 57.9631 30 50
    endloop
  endfacet
  facet normal 0 0 1
    outer loop
      vertex 57.818 30.9156 50
      vertex 0 30 50
      vertex 55 30 50
    endloop
  endfacet
  facet normal 0 0 1
    outer loop
      vertex 55 10 50
      vertex 57.818 -0.915637 50
      vertex 57.9631 0 50
    endloop
  endfacet
  facet normal 0 0 1
    outer loop
      vertex 57.9631 30 50
      vertex 56.8 11.8 50
      vertex 57.9631 0 50
    endloop
  endfacet
  facet normal 0 0 1
    outer loop
      vertex 57.9631 30 50
      vertex 55 30 50
      vertex 56.8 11.8 50
    endloop
  endfacet
  facet normal 0 0 1
    outer loop
      vertex 56.8 10 50
      vertex 55 10 50
      vertex 57.9631 0 50
    endloop
  endfacet
  facet normal 0 0 1
    outer loop
      vertex 55 10 50
      vertex 55 0 50
      vertex 57.818 -0.915637 50
    endloop
  endfacet
  facet normal 0 0 1
    outer loop
      vertex 57.818 -0.915637 50
      vertex 55 0 50
      vertex 57.3972 -1.74165 50
    endloop
  endfacet
  facet normal 0 0 1
    outer loop
      vertex 55 11.8 50
      vertex 56.8 11.8 50
      vertex 55 30 50
    endloop
  endfacet
  facet normal 0 0 1
    outer loop
      vertex 55 -2.96306 50
      vertex 21.5 -2 50
      vertex 0 -2.96306 50
    endloop
  endfacet
  facet normal 0 0 1
    outer loop
      vertex 55 -2.96306 50
      vertex 21.5 0 50
      vertex 21.5 -2 50
    endloop
  endfacet
  facet normal 0 0 1
    outer loop
      vertex 21.5 -2 50
      vertex 11.5 -2 50
      vertex 0 -2.96306 50
    endloop
  endfacet
  facet normal 0 0 1
    outer loop
      vertex 11.5 0 50
      vertex 0 0 50
      vertex 0 -2.96306 50
    endloop
  endfacet
  facet normal 0 0 1
    outer loop
      vertex -1.8 10 50
      vertex -1.8 11.8 50
      vertex -2.96306 30 50
    endloop
  endfacet
  facet normal 0 0 1
    outer loop
      vertex 0 0 50
      vertex -0.915637 -2.81804 50
      vertex 0 -2.96306 50
    endloop
  endfacet
  facet normal 0 0 1
    outer loop
      vertex 0 10 50
      vertex -0.915637 -2.81804 50
      vertex 0 0 50
    endloop
  endfacet
  facet normal 0 0 1
    outer loop
      vertex 0 10 50
      vertex -1.8 10 50
      vertex -0.915637 -2.81804 50
    endloop
  endfacet
  facet normal 0 0 1
    outer loop
      vertex 11.5 -2 50
      vertex 11.5 0 50
      vertex 0 -2.96306 50
    endloop
  endfacet
  facet normal 0 0 1
    outer loop
      vertex 0 11.8 50
      vertex 0 30 50
      vertex -2.96306 30 50
    endloop
  endfacet
  facet normal -0.891007 -0.45399 0
    outer loop
      vertex -2.81804 -0.915637 -0.469303
      vertex -2.39717 -1.74165 -0.469303
      vertex -2.81804 -0.915637 50
    endloop
  endfacet
  facet normal -0.891007 -0.45399 0
    outer loop
      vertex -2.81804 -0.915637 50
      vertex -2.39717 -1.74165 -0.469303
      vertex -2.39717 -1.74165 50
    endloop
  endfacet
  facet normal -0.84839 -0.432275 -0.30557
    outer loop
      vertex -2.39717 -1.74165 -0.469303
      vertex -2.81804 -0.915637 -0.469303
      vertex -2.16252 -1.57116 -1.36197
    endloop
  endfacet
  facet normal -0.848389 -0.432277 -0.305569
    outer loop
      vertex -2.16252 -1.57116 -1.36197
      vertex -2.81804 -0.915637 -0.469303
      vertex -2.54219 -0.826008 -1.36197
    endloop
  endfacet
  facet normal -0.723906 -0.368849 -0.583018
    outer loop
      vertex -2.16252 -1.57116 -1.36197
      vertex -2.54219 -0.826008 -1.36197
      vertex -1.71618 -1.24688 -2.12132
    endloop
  endfacet
  facet normal -0.723906 -0.368849 -0.583018
    outer loop
      vertex -1.71618 -1.24688 -2.12132
      vertex -2.54219 -0.826008 -1.36197
      vertex -2.0175 -0.655524 -2.12132
    endloop
  endfacet
  facet normal -0.802456 -0.127097 -0.583018
    outer loop
      vertex -2.54219 -0.826008 -1.36197
      vertex -2.67302 0 -1.36197
      vertex -2.0175 -0.655524 -2.12132
    endloop
  endfacet
  facet normal -0.802456 -0.127096 -0.583019
    outer loop
      vertex -2.0175 -0.655524 -2.12132
      vertex -2.67302 0 -1.36197
      vertex -2.12132 0 -2.12132
    endloop
  endfacet
  facet normal -0.809017 0 -0.587786
    outer loop
      vertex -2.67302 0 -1.36197
      vertex -2.67302 30 -1.36197
      vertex -2.12132 0 -2.12132
    endloop
  endfacet
  facet normal -0.809017 0 -0.587786
    outer loop
      vertex -2.12132 0 -2.12132
      vertex -2.67302 30 -1.36197
      vertex -2.12132 30 -2.12132
    endloop
  endfacet
  facet normal -0.802456 0.127097 -0.583019
    outer loop
      vertex -2.12132 30 -2.12132
      vertex -2.67302 30 -1.36197
      vertex -2.54219 30.826 -1.36197
    endloop
  endfacet
  facet normal -0.940447 0.148952 -0.305569
    outer loop
      vertex -2.67302 30 -1.36197
      vertex -2.81804 30.9156 -0.469303
      vertex -2.54219 30.826 -1.36197
    endloop
  endfacet
  facet normal -0.84839 0.432276 -0.305569
    outer loop
      vertex -2.54219 30.826 -1.36197
      vertex -2.81804 30.9156 -0.469303
      vertex -2.39717 31.7416 -0.469303
    endloop
  endfacet
  facet normal -0.891007 0.45399 0
    outer loop
      vertex -2.81804 30.9156 -0.469303
      vertex -2.81804 30.9156 50
      vertex -2.39717 31.7416 -0.469303
    endloop
  endfacet
  facet normal -0.891007 0.45399 0
    outer loop
      vertex -2.39717 31.7416 -0.469303
      vertex -2.81804 30.9156 50
      vertex -2.39717 31.7416 50
    endloop
  endfacet
  facet normal -0.707107 0.707107 0
    outer loop
      vertex -2.39717 31.7416 -0.469303
      vertex -2.39717 31.7416 50
      vertex -1.74165 32.3972 -0.469303
    endloop
  endfacet
  facet normal -0.707107 0.707107 0
    outer loop
      vertex -1.74165 32.3972 -0.469303
      vertex -2.39717 31.7416 50
      vertex -1.74165 32.3972 50
    endloop
  endfacet
  facet normal -0.45399 0.891007 0
    outer loop
      vertex -1.74165 32.3972 -0.469303
      vertex -1.74165 32.3972 50
      vertex -0.915637 32.818 -0.469303
    endloop
  endfacet
  facet normal -0.45399 0.891007 0
    outer loop
      vertex -0.915637 32.818 -0.469303
      vertex -1.74165 32.3972 50
      vertex -0.915637 32.818 50
    endloop
  endfacet
  facet normal -0.156435 0.987688 0
    outer loop
      vertex -0.915637 32.818 -0.469303
      vertex -0.915637 32.818 50
      vertex 0 32.9631 -0.469303
    endloop
  endfacet
  facet normal -0.156435 0.987688 0
    outer loop
      vertex 0 32.9631 -0.469303
      vertex -0.915637 32.818 50
      vertex 0 32.9631 50
    endloop
  endfacet
  facet normal 0 1 0
    outer loop
      vertex 0 32.9631 -0.469303
      vertex 0 32.9631 50
      vertex 55 32.9631 -0.469303
    endloop
  endfacet
  facet normal 0 1 0
    outer loop
      vertex 55 32.9631 -0.469303
      vertex 0 32.9631 50
      vertex 55 32.9631 50
    endloop
  endfacet
  facet normal 0.156435 0.987688 0
    outer loop
      vertex 55 32.9631 -0.469303
      vertex 55 32.9631 50
      vertex 55.9156 32.818 -0.469303
    endloop
  endfacet
  facet normal 0.156435 0.987688 0
    outer loop
      vertex 55.9156 32.818 -0.469303
      vertex 55 32.9631 50
      vertex 55.9156 32.818 50
    endloop
  endfacet
  facet normal 0.45399 0.891007 0
    outer loop
      vertex 55.9156 32.818 -0.469303
      vertex 55.9156 32.818 50
      vertex 56.7416 32.3972 -0.469303
    endloop
  endfacet
  facet normal 0.45399 0.891007 0
    outer loop
      vertex 56.7416 32.3972 -0.469303
      vertex 55.9156 32.818 50
      vertex 56.7416 32.3972 50
    endloop
  endfacet
  facet normal 0.707107 0.707107 0
    outer loop
      vertex 56.7416 32.3972 -0.469303
      vertex 56.7416 32.3972 50
      vertex 57.3972 31.7416 -0.469303
    endloop
  endfacet
  facet normal 0.707107 0.707107 0
    outer loop
      vertex 57.3972 31.7416 -0.469303
      vertex 56.7416 32.3972 50
      vertex 57.3972 31.7416 50
    endloop
  endfacet
  facet normal 0.891007 0.45399 0
    outer loop
      vertex 57.818 30.9156 -0.469303
      vertex 57.3972 31.7416 -0.469303
      vertex 57.3972 31.7416 50
    endloop
  endfacet
  facet normal 0.891007 0.45399 0
    outer loop
      vertex 57.818 30.9156 50
      vertex 57.818 30.9156 -0.469303
      vertex 57.3972 31.7416 50
    endloop
  endfacet
  facet normal 0.987688 0.156435 0
    outer loop
      vertex 57.9631 30 -0.469303
      vertex 57.818 30.9156 -0.469303
      vertex 57.818 30.9156 50
    endloop
  endfacet
  facet normal 0.987688 0.156435 0
    outer loop
      vertex 57.9631 30 50
      vertex 57.9631 30 -0.469303
      vertex 57.818 30.9156 50
    endloop
  endfacet
  facet normal 1 0 0
    outer loop
      vertex 57.9631 0 50
      vertex 57.9631 0 -0.469303
      vertex 57.9631 30 -0.469303
    endloop
  endfacet
  facet normal 1 0 0
    outer loop
      vertex 57.9631 30 50
      vertex 57.9631 0 50
      vertex 57.9631 30 -0.469303
    endloop
  endfacet
  facet normal 0.987688 -0.156435 0
    outer loop
      vertex 57.818 -0.915637 50
      vertex 57.818 -0.915637 -0.469303
      vertex 57.9631 0 -0.469303
    endloop
  endfacet
  facet normal 0.987688 -0.156435 0
    outer loop
      vertex 57.9631 0 50
      vertex 57.818 -0.915637 50
      vertex 57.9631 0 -0.469303
    endloop
  endfacet
  facet normal 0.891007 -0.45399 0
    outer loop
      vertex 57.3972 -1.74165 50
      vertex 57.3972 -1.74165 -0.469303
      vertex 57.818 -0.915637 -0.469303
    endloop
  endfacet
  facet normal 0.891007 -0.45399 0
    outer loop
      vertex 57.818 -0.915637 50
      vertex 57.3972 -1.74165 50
      vertex 57.818 -0.915637 -0.469303
    endloop
  endfacet
  facet normal 0.707107 -0.707107 0
    outer loop
      vertex 56.7416 -2.39717 50
      vertex 56.7416 -2.39717 -0.469303
      vertex 57.3972 -1.74165 -0.469303
    endloop
  endfacet
  facet normal 0.707107 -0.707107 0
    outer loop
      vertex 57.3972 -1.74165 50
      vertex 56.7416 -2.39717 50
      vertex 57.3972 -1.74165 -0.469303
    endloop
  endfacet
  facet normal 0.45399 -0.891007 0
    outer loop
      vertex 55.9156 -2.81804 50
      vertex 55.9156 -2.81804 -0.469303
      vertex 56.7416 -2.39717 -0.469303
    endloop
  endfacet
  facet normal 0.45399 -0.891007 0
    outer loop
      vertex 56.7416 -2.39717 50
      vertex 55.9156 -2.81804 50
      vertex 56.7416 -2.39717 -0.469303
    endloop
  endfacet
  facet normal 0.156435 -0.987688 0
    outer loop
      vertex 55 -2.96306 50
      vertex 55 -2.96306 -0.469303
      vertex 55.9156 -2.81804 -0.469303
    endloop
  endfacet
  facet normal 0.156435 -0.987688 0
    outer loop
      vertex 55.9156 -2.81804 50
      vertex 55 -2.96306 50
      vertex 55.9156 -2.81804 -0.469303
    endloop
  endfacet
  facet normal 0 -1 0
    outer loop
      vertex 0 -2.96306 50
      vertex 0 -2.96306 -0.469303
      vertex 55 -2.96306 -0.469303
    endloop
  endfacet
  facet normal 0 -1 0
    outer loop
      vertex 55 -2.96306 50
      vertex 0 -2.96306 50
      vertex 55 -2.96306 -0.469303
    endloop
  endfacet
  facet normal -0.156435 -0.987688 0
    outer loop
      vertex -0.915637 -2.81804 50
      vertex -0.915637 -2.81804 -0.469303
      vertex 0 -2.96306 -0.469303
    endloop
  endfacet
  facet normal -0.156435 -0.987688 0
    outer loop
      vertex 0 -2.96306 50
      vertex -0.915637 -2.81804 50
      vertex 0 -2.96306 -0.469303
    endloop
  endfacet
  facet normal -0.45399 -0.891007 0
    outer loop
      vertex -1.74165 -2.39717 50
      vertex -1.74165 -2.39717 -0.469303
      vertex -0.915637 -2.81804 -0.469303
    endloop
  endfacet
  facet normal -0.45399 -0.891007 0
    outer loop
      vertex -0.915637 -2.81804 50
      vertex -1.74165 -2.39717 50
      vertex -0.915637 -2.81804 -0.469303
    endloop
  endfacet
  facet normal -0.707107 -0.707107 0
    outer loop
      vertex -2.39717 -1.74165 50
      vertex -2.39717 -1.74165 -0.469303
      vertex -1.74165 -2.39717 -0.469303
    endloop
  endfacet
  facet normal -0.707107 -0.707107 0
    outer loop
      vertex -1.74165 -2.39717 50
      vertex -2.39717 -1.74165 50
      vertex -1.74165 -2.39717 -0.469303
    endloop
  endfacet
  facet normal 1 0 0
    outer loop
      vertex -1.8 11.8 0
      vertex -1.8 11.8 50
      vertex -1.8 10 50
    endloop
  endfacet
  facet normal 1 0 0
    outer loop
      vertex -1.8 10 0
      vertex -1.8 11.8 0
      vertex -1.8 10 50
    endloop
  endfacet
  facet normal 0 1 0
    outer loop
      vertex 0 10 50
      vertex 0 10 0
      vertex -1.8 10 50
    endloop
  endfacet
  facet normal 0 1 0
    outer loop
      vertex -1.8 10 50
      vertex 0 10 0
      vertex -1.8 10 0
    endloop
  endfacet
  facet normal 1 0 0
    outer loop
      vertex 0 10 0
      vertex 0 10 50
      vertex 0 0 50
    endloop
  endfacet
  facet normal 1 0 0
    outer loop
      vertex 0 0 0
      vertex 0 10 0
      vertex 0 0 50
    endloop
  endfacet
  facet normal 0 1 0
    outer loop
      vertex 0 0 0
      vertex 0 0 50
      vertex 9.5 0 0
    endloop
  endfacet
  facet normal 0 1 0
    outer loop
      vertex 9.5 0 30
      vertex 0 0 50
      vertex 11.5 0 50
    endloop
  endfacet
  facet normal 0 1 0
    outer loop
      vertex 9.5 0 0
      vertex 0 0 50
      vertex 9.5 0 30
    endloop
  endfacet
  facet normal 0 1 0
    outer loop
      vertex 9.5 0 30
      vertex 11.5 0 50
      vertex 11.5 0 30
    endloop
  endfacet
  facet normal 1 0 0
    outer loop
      vertex 11.5 0.5 0
      vertex 11.5 0.5 30
      vertex 11.5 0 30
    endloop
  endfacet
  facet normal 1 0 0
    outer loop
      vertex 11.5 -2 50
      vertex 11.5 0.5 0
      vertex 11.5 0 30
    endloop
  endfacet
  facet normal 1 0 0
    outer loop
      vertex 11.5 0 50
      vertex 11.5 -2 50
      vertex 11.5 0 30
    endloop
  endfacet
  facet normal 1 0 0
    outer loop
      vertex 11.5 -2 50
      vertex 11.5 -2 0
      vertex 11.5 0.5 0
    endloop
  endfacet
  facet normal 0 1 0
    outer loop
      vertex 21.5 -2 50
      vertex 21.5 -2 0
      vertex 11.5 -2 50
    endloop
  endfacet
  facet normal 0 1 0
    outer loop
      vertex 11.5 -2 50
      vertex 21.5 -2 0
      vertex 11.5 -2 0
    endloop
  endfacet
  facet normal -1 0 0
    outer loop
      vertex 21.5 0 50
      vertex 21.5 0 30
      vertex 21.5 -2 50
    endloop
  endfacet
  facet normal -1 0 0
    outer loop
      vertex 21.5 0.5 0
      vertex 21.5 0 30
      vertex 21.5 0.5 30
    endloop
  endfacet
  facet normal -1 0 0
    outer loop
      vertex 21.5 -2 50
      vertex 21.5 0 30
      vertex 21.5 0.5 0
    endloop
  endfacet
  facet normal -1 0 0
    outer loop
      vertex 21.5 -2 50
      vertex 21.5 0.5 0
      vertex 21.5 -2 0
    endloop
  endfacet
  facet normal 0 1 0
    outer loop
      vertex 21.5 0 30
      vertex 21.5 0 50
      vertex 23.5 0 30
    endloop
  endfacet
  facet normal 0 1 0
    outer loop
      vertex 24.5 0 45
      vertex 21.5 0 50
      vertex 55 0 50
    endloop
  endfacet
  facet normal 0 1 0
    outer loop
      vertex 23.5 0 30
      vertex 55 0 50
      vertex 55 0 0
    endloop
  endfacet
  facet normal 0 1 0
    outer loop
      vertex 30.5 0 45
      vertex 55 0 50
      vertex 30.5 0 40
    endloop
  endfacet
  facet normal 0 1 0
    outer loop
      vertex 23.5 0 30
      vertex 21.5 0 50
      vertex 24.5 0 45
    endloop
  endfacet
  facet normal 0 1 0
    outer loop
      vertex 30.5 0 45
      vertex 24.5 0 45
      vertex 55 0 50
    endloop
  endfacet
  facet normal 0 1 0
    outer loop
      vertex 23.5 0 30
      vertex 24.5 0 45
      vertex 24.5 0 40
    endloop
  endfacet
  facet normal 0 1 0
    outer loop
      vertex 23.5 0 30
      vertex 24.5 0 40
      vertex 30.5 0 40
    endloop
  endfacet
  facet normal 0 1 0
    outer loop
      vertex 23.5 0 30
      vertex 30.5 0 40
      vertex 55 0 50
    endloop
  endfacet
  facet normal 0 1 0
    outer loop
      vertex 23.5 0 30
      vertex 55 0 0
      vertex 23.5 0 0
    endloop
  endfacet
  facet normal -1 0 0
    outer loop
      vertex 55 10 50
      vertex 55 10 0
      vertex 55 0 50
    endloop
  endfacet
  facet normal -1 0 0
    outer loop
      vertex 55 0 50
      vertex 55 10 0
      vertex 55 0 0
    endloop
  endfacet
  facet normal 0 1 0
    outer loop
      vertex 56.8 10 50
      vertex 56.8 10 0
      vertex 55 10 50
    endloop
  endfacet
  facet normal 0 1 0
    outer loop
      vertex 55 10 50
      vertex 56.8 10 0
      vertex 55 10 0
    endloop
  endfacet
  facet normal -1 0 0
    outer loop
      vertex 56.8 11.8 50
      vertex 56.8 11.8 0
      vertex 56.8 10 50
    endloop
  endfacet
  facet normal -1 0 0
    outer loop
      vertex 56.8 10 50
      vertex 56.8 11.8 0
      vertex 56.8 10 0
    endloop
  endfacet
  facet normal 0 -1 0
    outer loop
      vertex 56.8 11.8 0
      vertex 56.8 11.8 50
      vertex 55 11.8 50
    endloop
  endfacet
  facet normal 0 -1 0
    outer loop
      vertex 55 11.8 0
      vertex 56.8 11.8 0
      vertex 55 11.8 50
    endloop
  endfacet
  facet normal -1 0 0
    outer loop
      vertex 55 30 50
      vertex 55 30 0
      vertex 55 11.8 50
    endloop
  endfacet
  facet normal -1 0 0
    outer loop
      vertex 55 11.8 50
      vertex 55 30 0
      vertex 55 11.8 0
    endloop
  endfacet
  facet normal 0 -1 0
    outer loop
      vertex 0 30 50
      vertex 0 30 0
      vertex 55 30 0
    endloop
  endfacet
  facet normal 0 -1 0
    outer loop
      vertex 24.5 30 40
      vertex 0 30 50
      vertex 55 30 0
    endloop
  endfacet
  facet normal 0 -1 0
    outer loop
      vertex 30.5 30 40
      vertex 24.5 30 40
      vertex 55 30 0
    endloop
  endfacet
  facet normal 0 -1 0
    outer loop
      vertex 24.5 30 45
      vertex 0 30 50
      vertex 24.5 30 40
    endloop
  endfacet
  facet normal 0 -1 0
    outer loop
      vertex 55 30 50
      vertex 0 30 50
      vertex 24.5 30 45
    endloop
  endfacet
  facet normal 0 -1 0
    outer loop
      vertex 55 30 50
      vertex 24.5 30 45
      vertex 30.5 30 45
    endloop
  endfacet
  facet normal 0 -1 0
    outer loop
      vertex 55 30 50
      vertex 30.5 30 40
      vertex 55 30 0
    endloop
  endfacet
  facet normal 0 -1 0
    outer loop
      vertex 30.5 30 45
      vertex 30.5 30 40
      vertex 55 30 50
    endloop
  endfacet
  facet normal 1 0 0
    outer loop
      vertex 0 30 0
      vertex 0 30 50
      vertex 0 11.8 50
    endloop
  endfacet
  facet normal 1 0 0
    outer loop
      vertex 0 11.8 0
      vertex 0 30 0
      vertex 0 11.8 50
    endloop
  endfacet
  facet normal 0 -1 0
    outer loop
      vertex 0 11.8 0
      vertex 0 11.8 50
      vertex -1.8 11.8 50
    endloop
  endfacet
  facet normal 0 -1 0
    outer loop
      vertex -1.8 11.8 0
      vertex 0 11.8 0
      vertex -1.8 11.8 50
    endloop
  endfacet
  facet normal -0.673286 -0.673286 -0.30557
    outer loop
      vertex -1.74165 -2.39717 -0.469303
      vertex -2.39717 -1.74165 -0.469303
      vertex -2.16252 -1.57116 -1.36197
    endloop
  endfacet
  facet normal -0.673286 -0.673286 -0.30557
    outer loop
      vertex -1.57116 -2.16252 -1.36197
      vertex -1.74165 -2.39717 -0.469303
      vertex -2.16252 -1.57116 -1.36197
    endloop
  endfacet
  facet normal -0.574495 -0.574495 -0.583018
    outer loop
      vertex -2.16252 -1.57116 -1.36197
      vertex -1.71618 -1.24688 -2.12132
      vertex -1.57116 -2.16252 -1.36197
    endloop
  endfacet
  facet normal -0.574495 -0.574495 -0.583018
    outer loop
      vertex -1.57116 -2.16252 -1.36197
      vertex -1.71618 -1.24688 -2.12132
      vertex -1.24688 -1.71618 -2.12132
    endloop
  endfacet
  facet normal -0.418996 -0.418996 -0.805533
    outer loop
      vertex -1.71618 -1.24688 -2.12132
      vertex -1.10186 -0.800547 -2.67302
      vertex -1.24688 -1.71618 -2.12132
    endloop
  endfacet
  facet normal -0.418996 -0.418996 -0.805533
    outer loop
      vertex -1.24688 -1.71618 -2.12132
      vertex -1.10186 -0.800547 -2.67302
      vertex -0.800547 -1.10186 -2.67302
    endloop
  endfacet
  facet normal -0.527966 -0.269013 -0.805533
    outer loop
      vertex -1.71618 -1.24688 -2.12132
      vertex -2.0175 -0.655524 -2.12132
      vertex -1.10186 -0.800547 -2.67302
    endloop
  endfacet
  facet normal -0.527966 -0.269012 -0.805534
    outer loop
      vertex -1.10186 -0.800547 -2.67302
      vertex -2.0175 -0.655524 -2.12132
      vertex -1.29531 -0.420872 -2.67302
    endloop
  endfacet
  facet normal -0.585255 -0.0926946 -0.805533
    outer loop
      vertex -2.0175 -0.655524 -2.12132
      vertex -2.12132 0 -2.12132
      vertex -1.29531 -0.420872 -2.67302
    endloop
  endfacet
  facet normal -0.585255 -0.0926945 -0.805534
    outer loop
      vertex -1.29531 -0.420872 -2.67302
      vertex -2.12132 0 -2.12132
      vertex -1.36197 0 -2.67302
    endloop
  endfacet
  facet normal -0.587786 0 -0.809017
    outer loop
      vertex -2.12132 0 -2.12132
      vertex -2.12132 30 -2.12132
      vertex -1.36197 0 -2.67302
    endloop
  endfacet
  facet normal -0.587786 0 -0.809017
    outer loop
      vertex -1.36197 0 -2.67302
      vertex -2.12132 30 -2.12132
      vertex -1.36197 30 -2.67302
    endloop
  endfacet
  facet normal -0.585255 0.0926946 -0.805534
    outer loop
      vertex -1.36197 30 -2.67302
      vertex -2.12132 30 -2.12132
      vertex -2.0175 30.6555 -2.12132
    endloop
  endfacet
  facet normal -0.802457 0.127096 -0.583018
    outer loop
      vertex -2.12132 30 -2.12132
      vertex -2.54219 30.826 -1.36197
      vertex -2.0175 30.6555 -2.12132
    endloop
  endfacet
  facet normal -0.723906 0.368849 -0.583018
    outer loop
      vertex -2.0175 30.6555 -2.12132
      vertex -2.54219 30.826 -1.36197
      vertex -2.16252 31.5712 -1.36197
    endloop
  endfacet
  facet normal -0.848389 0.432276 -0.30557
    outer loop
      vertex -2.16252 31.5712 -1.36197
      vertex -2.54219 30.826 -1.36197
      vertex -2.39717 31.7416 -0.469303
    endloop
  endfacet
  facet normal -0.673286 0.673286 -0.30557
    outer loop
      vertex -2.39717 31.7416 -0.469303
      vertex -1.74165 32.3972 -0.469303
      vertex -2.16252 31.5712 -1.36197
    endloop
  endfacet
  facet normal -0.673286 0.673286 -0.30557
    outer loop
      vertex -2.16252 31.5712 -1.36197
      vertex -1.74165 32.3972 -0.469303
      vertex -1.57116 32.1625 -1.36197
    endloop
  endfacet
  facet normal -0.432275 0.84839 -0.30557
    outer loop
      vertex -1.57116 32.1625 -1.36197
      vertex -1.74165 32.3972 -0.469303
      vertex -0.915637 32.818 -0.469303
    endloop
  endfacet
  facet normal -0.432277 0.848389 -0.305569
    outer loop
      vertex -0.826008 32.5422 -1.36197
      vertex -1.57116 32.1625 -1.36197
      vertex -0.915637 32.818 -0.469303
    endloop
  endfacet
  facet normal -0.148953 0.940447 -0.305569
    outer loop
      vertex -0.826008 32.5422 -1.36197
      vertex -0.915637 32.818 -0.469303
      vertex 0 32.9631 -0.469303
    endloop
  endfacet
  facet normal -0.148952 0.940447 -0.305569
    outer loop
      vertex 0 32.673 -1.36197
      vertex -0.826008 32.5422 -1.36197
      vertex 0 32.9631 -0.469303
    endloop
  endfacet
  facet normal 0 0.951057 -0.309017
    outer loop
      vertex 0 32.673 -1.36197
      vertex 0 32.9631 -0.469303
      vertex 55 32.673 -1.36197
    endloop
  endfacet
  facet normal 0 0.951057 -0.309017
    outer loop
      vertex 55 32.673 -1.36197
      vertex 0 32.9631 -0.469303
      vertex 55 32.9631 -0.469303
    endloop
  endfacet
  facet normal 0.148953 0.940447 -0.305569
    outer loop
      vertex 55.9156 32.818 -0.469303
      vertex 55 32.673 -1.36197
      vertex 55 32.9631 -0.469303
    endloop
  endfacet
  facet normal 0.148952 0.940447 -0.305569
    outer loop
      vertex 55.826 32.5422 -1.36197
      vertex 55 32.673 -1.36197
      vertex 55.9156 32.818 -0.469303
    endloop
  endfacet
  facet normal 0.432276 0.84839 -0.305569
    outer loop
      vertex 56.7416 32.3972 -0.469303
      vertex 55.826 32.5422 -1.36197
      vertex 55.9156 32.818 -0.469303
    endloop
  endfacet
  facet normal 0.432276 0.848389 -0.30557
    outer loop
      vertex 56.5712 32.1625 -1.36197
      vertex 55.826 32.5422 -1.36197
      vertex 56.7416 32.3972 -0.469303
    endloop
  endfacet
  facet normal 0.673286 0.673286 -0.30557
    outer loop
      vertex 56.5712 32.1625 -1.36197
      vertex 56.7416 32.3972 -0.469303
      vertex 57.1625 31.5712 -1.36197
    endloop
  endfacet
  facet normal 0.673286 0.673286 -0.30557
    outer loop
      vertex 57.1625 31.5712 -1.36197
      vertex 56.7416 32.3972 -0.469303
      vertex 57.3972 31.7416 -0.469303
    endloop
  endfacet
  facet normal 0.84839 0.432275 -0.30557
    outer loop
      vertex 57.818 30.9156 -0.469303
      vertex 57.1625 31.5712 -1.36197
      vertex 57.3972 31.7416 -0.469303
    endloop
  endfacet
  facet normal 0.848389 0.432277 -0.305569
    outer loop
      vertex 57.5422 30.826 -1.36197
      vertex 57.1625 31.5712 -1.36197
      vertex 57.818 30.9156 -0.469303
    endloop
  endfacet
  facet normal 0.940447 0.148953 -0.305569
    outer loop
      vertex 57.9631 30 -0.469303
      vertex 57.5422 30.826 -1.36197
      vertex 57.818 30.9156 -0.469303
    endloop
  endfacet
  facet normal 0.940447 0.148952 -0.305569
    outer loop
      vertex 57.673 30 -1.36197
      vertex 57.5422 30.826 -1.36197
      vertex 57.9631 30 -0.469303
    endloop
  endfacet
  facet normal 0.951057 0 -0.309017
    outer loop
      vertex 57.9631 0 -0.469303
      vertex 57.673 0 -1.36197
      vertex 57.673 30 -1.36197
    endloop
  endfacet
  facet normal 0.951057 0 -0.309017
    outer loop
      vertex 57.9631 30 -0.469303
      vertex 57.9631 0 -0.469303
      vertex 57.673 30 -1.36197
    endloop
  endfacet
  facet normal 0.940447 -0.148953 -0.305569
    outer loop
      vertex 57.818 -0.915637 -0.469303
      vertex 57.673 0 -1.36197
      vertex 57.9631 0 -0.469303
    endloop
  endfacet
  facet normal 0.940447 -0.148952 -0.305569
    outer loop
      vertex 57.818 -0.915637 -0.469303
      vertex 57.5422 -0.826008 -1.36197
      vertex 57.673 0 -1.36197
    endloop
  endfacet
  facet normal 0.84839 -0.432276 -0.305569
    outer loop
      vertex 57.818 -0.915637 -0.469303
      vertex 57.3972 -1.74165 -0.469303
      vertex 57.5422 -0.826008 -1.36197
    endloop
  endfacet
  facet normal 0.848389 -0.432276 -0.30557
    outer loop
      vertex 57.3972 -1.74165 -0.469303
      vertex 57.1625 -1.57116 -1.36197
      vertex 57.5422 -0.826008 -1.36197
    endloop
  endfacet
  facet normal 0.673286 -0.673286 -0.30557
    outer loop
      vertex 56.7416 -2.39717 -0.469303
      vertex 56.5712 -2.16252 -1.36197
      vertex 57.1625 -1.57116 -1.36197
    endloop
  endfacet
  facet normal 0.673286 -0.673286 -0.30557
    outer loop
      vertex 57.3972 -1.74165 -0.469303
      vertex 56.7416 -2.39717 -0.469303
      vertex 57.1625 -1.57116 -1.36197
    endloop
  endfacet
  facet normal 0.432275 -0.84839 -0.30557
    outer loop
      vertex 56.7416 -2.39717 -0.469303
      vertex 55.9156 -2.81804 -0.469303
      vertex 56.5712 -2.16252 -1.36197
    endloop
  endfacet
  facet normal 0.432277 -0.848389 -0.305569
    outer loop
      vertex 55.9156 -2.81804 -0.469303
      vertex 55.826 -2.54219 -1.36197
      vertex 56.5712 -2.16252 -1.36197
    endloop
  endfacet
  facet normal 0.148953 -0.940447 -0.305569
    outer loop
      vertex 55.9156 -2.81804 -0.469303
      vertex 55 -2.96306 -0.469303
      vertex 55.826 -2.54219 -1.36197
    endloop
  endfacet
  facet normal 0.148952 -0.940447 -0.305569
    outer loop
      vertex 55.826 -2.54219 -1.36197
      vertex 55 -2.96306 -0.469303
      vertex 55 -2.67302 -1.36197
    endloop
  endfacet
  facet normal 0 -0.951057 -0.309017
    outer loop
      vertex 55 -2.96306 -0.469303
      vertex 0 -2.96306 -0.469303
      vertex 0 -2.67302 -1.36197
    endloop
  endfacet
  facet normal 0 -0.951057 -0.309017
    outer loop
      vertex 55 -2.67302 -1.36197
      vertex 55 -2.96306 -0.469303
      vertex 0 -2.67302 -1.36197
    endloop
  endfacet
  facet normal -0.148953 -0.940447 -0.305569
    outer loop
      vertex 0 -2.96306 -0.469303
      vertex -0.915637 -2.81804 -0.469303
      vertex 0 -2.67302 -1.36197
    endloop
  endfacet
  facet normal -0.148952 -0.940447 -0.305569
    outer loop
      vertex 0 -2.67302 -1.36197
      vertex -0.915637 -2.81804 -0.469303
      vertex -0.826008 -2.54219 -1.36197
    endloop
  endfacet
  facet normal -0.432276 -0.84839 -0.305569
    outer loop
      vertex -0.915637 -2.81804 -0.469303
      vertex -1.74165 -2.39717 -0.469303
      vertex -0.826008 -2.54219 -1.36197
    endloop
  endfacet
  facet normal -0.432276 -0.848389 -0.30557
    outer loop
      vertex -0.826008 -2.54219 -1.36197
      vertex -1.74165 -2.39717 -0.469303
      vertex -1.57116 -2.16252 -1.36197
    endloop
  endfacet
  facet normal 0 0 1
    outer loop
      vertex 0 10 0
      vertex 0 0 0
      vertex 9.5 0 0
    endloop
  endfacet
  facet normal 0 0 1
    outer loop
      vertex 11.5 5 0
      vertex 0 10 0
      vertex 9.5 5 0
    endloop
  endfacet
  facet normal 0 0 1
    outer loop
      vertex 9.5 5 0
      vertex 0 10 0
      vertex 9.5 0 0
    endloop
  endfacet
  facet normal 0 0 1
    outer loop
      vertex 22.1 0.5 0
      vertex 0 10 0
      vertex 11.5 5 0
    endloop
  endfacet
  facet normal 0 0 1
    outer loop
      vertex 21.5 -2 0
      vertex 11.5 5 0
      vertex 11.5 2.3 0
    endloop
  endfacet
  facet normal 0 0 1
    outer loop
      vertex 21.5 2.3 0
      vertex 21.5 5 0
      vertex 0 10 0
    endloop
  endfacet
  facet normal 0 0 1
    outer loop
      vertex 11.5 0.5 0
      vertex 11.5 2.3 0
      vertex 10.9 0.5 0
    endloop
  endfacet
  facet normal 0 0 1
    outer loop
      vertex 21.5 -2 0
      vertex 11.5 2.3 0
      vertex 11.5 0.5 0
    endloop
  endfacet
  facet normal 0 0 1
    outer loop
      vertex 21.5 -2 0
      vertex 11.5 0.5 0
      vertex 11.5 -2 0
    endloop
  endfacet
  facet normal 0 0 1
    outer loop
      vertex 21.5 0.5 0
      vertex 11.5 5 0
      vertex 21.5 -2 0
    endloop
  endfacet
  facet normal 0 0 1
    outer loop
      vertex 22.1 0.5 0
      vertex 11.5 5 0
      vertex 21.5 0.5 0
    endloop
  endfacet
  facet normal 0 0 1
    outer loop
      vertex 21.5 2.3 0
      vertex 0 10 0
      vertex 22.1 0.5 0
    endloop
  endfacet
  facet normal 0 0 1
    outer loop
      vertex 22.1 2.3 0
      vertex 21.5 2.3 0
      vertex 22.1 0.5 0
    endloop
  endfacet
  facet normal 0 0 1
    outer loop
      vertex 23.5 5 0
      vertex 0 10 0
      vertex 21.5 5 0
    endloop
  endfacet
  facet normal 0 0 1
    outer loop
      vertex 55 0 0
      vertex 0 10 0
      vertex 23.5 5 0
    endloop
  endfacet
  facet normal 0 0 1
    outer loop
      vertex 55 0 0
      vertex 23.5 5 0
      vertex 23.5 0 0
    endloop
  endfacet
  facet normal 0 0 1
    outer loop
      vertex 55 10 0
      vertex 0 10 0
      vertex 55 0 0
    endloop
  endfacet
  facet normal 0 0 1
    outer loop
      vertex 56.8 11.8 0
      vertex 0 10 0
      vertex 55 10 0
    endloop
  endfacet
  facet normal 0 0 1
    outer loop
      vertex 56.8 11.8 0
      vertex 55 10 0
      vertex 56.8 10 0
    endloop
  endfacet
  facet normal 0 0 1
    outer loop
      vertex 55 11.8 0
      vertex 0 10 0
      vertex 56.8 11.8 0
    endloop
  endfacet
  facet normal 0 0 1
    outer loop
      vertex 55 30 0
      vertex 0 10 0
      vertex 55 11.8 0
    endloop
  endfacet
  facet normal 0 0 1
    outer loop
      vertex 0 11.8 0
      vertex 0 10 0
      vertex 55 30 0
    endloop
  endfacet
  facet normal 0 0 1
    outer loop
      vertex -1.8 11.8 0
      vertex 0 10 0
      vertex 0 11.8 0
    endloop
  endfacet
  facet normal 0 0 1
    outer loop
      vertex 0 30 0
      vertex 0 11.8 0
      vertex 55 30 0
    endloop
  endfacet
  facet normal 0 0 1
    outer loop
      vertex 10.9 2.3 0
      vertex 10.9 0.5 0
      vertex 11.5 2.3 0
    endloop
  endfacet
  facet normal 0 0 1
    outer loop
      vertex -1.8 10 0
      vertex 0 10 0
      vertex -1.8 11.8 0
    endloop
  endfacet
  facet normal -1 0 0
    outer loop
      vertex 9.5 0 0
      vertex 9.5 0 30
      vertex 9.5 5 0
    endloop
  endfacet
  facet normal -1 0 0
    outer loop
      vertex 9.5 5 0
      vertex 9.5 0 30
      vertex 9.5 5 30
    endloop
  endfacet
  facet normal 0 0 1
    outer loop
      vertex 10.9 0.5 30
      vertex 9.5 0 30
      vertex 11.5 0 30
    endloop
  endfacet
  facet normal 0 0 1
    outer loop
      vertex 10.9 0.5 30
      vertex 10.9 2.3 30
      vertex 9.5 5 30
    endloop
  endfacet
  facet normal 0 0 1
    outer loop
      vertex 9.5 5 30
      vertex 9.5 0 30
      vertex 10.9 0.5 30
    endloop
  endfacet
  facet normal 0 0 1
    outer loop
      vertex 11.5 2.3 30
      vertex 9.5 5 30
      vertex 10.9 2.3 30
    endloop
  endfacet
  facet normal 0 0 1
    outer loop
      vertex 11.5 5 30
      vertex 9.5 5 30
      vertex 11.5 2.3 30
    endloop
  endfacet
  facet normal 0 0 1
    outer loop
      vertex 11.5 0.5 30
      vertex 10.9 0.5 30
      vertex 11.5 0 30
    endloop
  endfacet
  facet normal 0 1 0
    outer loop
      vertex 11.5 0.5 30
      vertex 11.5 0.5 0
      vertex 10.9 0.5 30
    endloop
  endfacet
  facet normal 0 1 0
    outer loop
      vertex 10.9 0.5 30
      vertex 11.5 0.5 0
      vertex 10.9 0.5 0
    endloop
  endfacet
  facet normal 0 1 0
    outer loop
      vertex 22.1 0.5 30
      vertex 22.1 0.5 0
      vertex 21.5 0.5 30
    endloop
  endfacet
  facet normal 0 1 0
    outer loop
      vertex 21.5 0.5 30
      vertex 22.1 0.5 0
      vertex 21.5 0.5 0
    endloop
  endfacet
  facet normal 0 0 1
    outer loop
      vertex 21.5 0.5 30
      vertex 21.5 0 30
      vertex 23.5 0 30
    endloop
  endfacet
  facet normal 0 0 1
    outer loop
      vertex 22.1 0.5 30
      vertex 21.5 0.5 30
      vertex 23.5 0 30
    endloop
  endfacet
  facet normal 0 0 1
    outer loop
      vertex 21.5 5 30
      vertex 21.5 2.3 30
      vertex 23.5 5 30
    endloop
  endfacet
  facet normal 0 0 1
    outer loop
      vertex 21.5 2.3 30
      vertex 22.1 2.3 30
      vertex 23.5 5 30
    endloop
  endfacet
  facet normal 0 0 1
    outer loop
      vertex 23.5 5 30
      vertex 22.1 0.5 30
      vertex 23.5 0 30
    endloop
  endfacet
  facet normal 0 0 1
    outer loop
      vertex 22.1 2.3 30
      vertex 22.1 0.5 30
      vertex 23.5 5 30
    endloop
  endfacet
  facet normal 1 0 0
    outer loop
      vertex 23.5 0 30
      vertex 23.5 0 0
      vertex 23.5 5 0
    endloop
  endfacet
  facet normal 1 0 0
    outer loop
      vertex 23.5 5 30
      vertex 23.5 0 30
      vertex 23.5 5 0
    endloop
  endfacet
  facet normal 0 0 -1
    outer loop
      vertex 30.5 0 45
      vertex 30.5 -1 45
      vertex 24.5 0 45
    endloop
  endfacet
  facet normal 0 0 -1
    outer loop
      vertex 24.5 0 45
      vertex 30.5 -1 45
      vertex 24.5 -1 45
    endloop
  endfacet
  facet normal 1 0 0
    outer loop
      vertex 24.5 0 40
      vertex 24.5 0 45
      vertex 24.5 -1 45
    endloop
  endfacet
  facet normal 1 0 0
    outer loop
      vertex 24.5 -1 40
      vertex 24.5 0 40
      vertex 24.5 -1 45
    endloop
  endfacet
  facet normal -1 0 0
    outer loop
      vertex 30.5 0 45
      vertex 30.5 0 40
      vertex 30.5 -1 45
    endloop
  endfacet
  facet normal -1 0 0
    outer loop
      vertex 30.5 -1 45
      vertex 30.5 0 40
      vertex 30.5 -1 40
    endloop
  endfacet
  facet normal 0 0 1
    outer loop
      vertex 30.5 -1 40
      vertex 30.5 0 40
      vertex 24.5 0 40
    endloop
  endfacet
  facet normal 0 0 1
    outer loop
      vertex 24.5 -1 40
      vertex 30.5 -1 40
      vertex 24.5 0 40
    endloop
  endfacet
  facet normal 1 0 0
    outer loop
      vertex 24.5 31 40
      vertex 24.5 31 45
      vertex 24.5 30 45
    endloop
  endfacet
  facet normal 1 0 0
    outer loop
      vertex 24.5 30 40
      vertex 24.5 31 40
      vertex 24.5 30 45
    endloop
  endfacet
  facet normal 0 0 1
    outer loop
      vertex 30.5 30 40
      vertex 30.5 31 40
      vertex 24.5 31 40
    endloop
  endfacet
  facet normal 0 0 1
    outer loop
      vertex 24.5 30 40
      vertex 30.5 30 40
      vertex 24.5 31 40
    endloop
  endfacet
  facet normal -1 0 0
    outer loop
      vertex 30.5 31 45
      vertex 30.5 31 40
      vertex 30.5 30 45
    endloop
  endfacet
  facet normal -1 0 0
    outer loop
      vertex 30.5 30 45
      vertex 30.5 31 40
      vertex 30.5 30 40
    endloop
  endfacet
  facet normal 0 0 -1
    outer loop
      vertex 30.5 31 45
      vertex 30.5 30 45
      vertex 24.5 31 45
    endloop
  endfacet
  facet normal 0 0 -1
    outer loop
      vertex 24.5 31 45
      vertex 30.5 30 45
      vertex 24.5 30 45
    endloop
  endfacet
  facet normal -0.368849 -0.723906 -0.583018
    outer loop
      vertex -0.826008 -2.54219 -1.36197
      vertex -1.57116 -2.16252 -1.36197
      vertex -0.655524 -2.0175 -2.12132
    endloop
  endfacet
  facet normal -0.368849 -0.723906 -0.583018
    outer loop
      vertex -0.655524 -2.0175 -2.12132
      vertex -1.57116 -2.16252 -1.36197
      vertex -1.24688 -1.71618 -2.12132
    endloop
  endfacet
  facet normal -0.269013 -0.527966 -0.805534
    outer loop
      vertex -0.655524 -2.0175 -2.12132
      vertex -1.24688 -1.71618 -2.12132
      vertex -0.420872 -1.29531 -2.67302
    endloop
  endfacet
  facet normal -0.269012 -0.527966 -0.805533
    outer loop
      vertex -0.420872 -1.29531 -2.67302
      vertex -1.24688 -1.71618 -2.12132
      vertex -0.800547 -1.10186 -2.67302
    endloop
  endfacet
  facet normal -0.141869 -0.278435 -0.94992
    outer loop
      vertex -0.420872 -1.29531 -2.67302
      vertex -0.800547 -1.10186 -2.67302
      vertex -0.145023 -0.446334 -2.96306
    endloop
  endfacet
  facet normal -0.14187 -0.278434 -0.94992
    outer loop
      vertex -0.145023 -0.446334 -2.96306
      vertex -0.800547 -1.10186 -2.67302
      vertex -0.27585 -0.379674 -2.96306
    endloop
  endfacet
  facet normal -0.220967 -0.220967 -0.94992
    outer loop
      vertex -1.10186 -0.800547 -2.67302
      vertex -0.379674 -0.27585 -2.96306
      vertex -0.800547 -1.10186 -2.67302
    endloop
  endfacet
  facet normal -0.220967 -0.220967 -0.94992
    outer loop
      vertex -0.800547 -1.10186 -2.67302
      vertex -0.379674 -0.27585 -2.96306
      vertex -0.27585 -0.379674 -2.96306
    endloop
  endfacet
  facet normal -0.278435 -0.141869 -0.94992
    outer loop
      vertex -1.10186 -0.800547 -2.67302
      vertex -1.29531 -0.420872 -2.67302
      vertex -0.379674 -0.27585 -2.96306
    endloop
  endfacet
  facet normal -0.278434 -0.14187 -0.94992
    outer loop
      vertex -0.379674 -0.27585 -2.96306
      vertex -1.29531 -0.420872 -2.67302
      vertex -0.446334 -0.145023 -2.96306
    endloop
  endfacet
  facet normal -0.308647 -0.0488845 -0.94992
    outer loop
      vertex -1.29531 -0.420872 -2.67302
      vertex -1.36197 0 -2.67302
      vertex -0.446334 -0.145023 -2.96306
    endloop
  endfacet
  facet normal -0.308647 -0.0488841 -0.94992
    outer loop
      vertex -0.446334 -0.145023 -2.96306
      vertex -1.36197 0 -2.67302
      vertex -0.469303 0 -2.96306
    endloop
  endfacet
  facet normal -0.309017 0 -0.951057
    outer loop
      vertex -1.36197 0 -2.67302
      vertex -1.36197 30 -2.67302
      vertex -0.469303 0 -2.96306
    endloop
  endfacet
  facet normal -0.309017 0 -0.951057
    outer loop
      vertex -0.469303 0 -2.96306
      vertex -1.36197 30 -2.67302
      vertex -0.469303 30 -2.96306
    endloop
  endfacet
  facet normal -0.308647 0.0488845 -0.94992
    outer loop
      vertex -0.469303 30 -2.96306
      vertex -1.36197 30 -2.67302
      vertex -1.29531 30.4209 -2.67302
    endloop
  endfacet
  facet normal -0.585255 0.0926945 -0.805533
    outer loop
      vertex -1.36197 30 -2.67302
      vertex -2.0175 30.6555 -2.12132
      vertex -1.29531 30.4209 -2.67302
    endloop
  endfacet
  facet normal -0.527966 0.269013 -0.805534
    outer loop
      vertex -1.29531 30.4209 -2.67302
      vertex -2.0175 30.6555 -2.12132
      vertex -1.71618 31.2469 -2.12132
    endloop
  endfacet
  facet normal -0.723906 0.368849 -0.583018
    outer loop
      vertex -2.0175 30.6555 -2.12132
      vertex -2.16252 31.5712 -1.36197
      vertex -1.71618 31.2469 -2.12132
    endloop
  endfacet
  facet normal -0.574495 0.574495 -0.583018
    outer loop
      vertex -2.16252 31.5712 -1.36197
      vertex -1.57116 32.1625 -1.36197
      vertex -1.71618 31.2469 -2.12132
    endloop
  endfacet
  facet normal -0.574495 0.574495 -0.583018
    outer loop
      vertex -1.71618 31.2469 -2.12132
      vertex -1.57116 32.1625 -1.36197
      vertex -1.24688 31.7162 -2.12132
    endloop
  endfacet
  facet normal -0.368849 0.723906 -0.583018
    outer loop
      vertex -1.24688 31.7162 -2.12132
      vertex -1.57116 32.1625 -1.36197
      vertex -0.826008 32.5422 -1.36197
    endloop
  endfacet
  facet normal -0.368849 0.723906 -0.583018
    outer loop
      vertex -0.655524 32.0175 -2.12132
      vertex -1.24688 31.7162 -2.12132
      vertex -0.826008 32.5422 -1.36197
    endloop
  endfacet
  facet normal -0.127097 0.802456 -0.583018
    outer loop
      vertex -0.655524 32.0175 -2.12132
      vertex -0.826008 32.5422 -1.36197
      vertex 0 32.673 -1.36197
    endloop
  endfacet
  facet normal -0.127096 0.802456 -0.583019
    outer loop
      vertex 0 32.1213 -2.12132
      vertex -0.655524 32.0175 -2.12132
      vertex 0 32.673 -1.36197
    endloop
  endfacet
  facet normal 0 0.809017 -0.587786
    outer loop
      vertex 0 32.1213 -2.12132
      vertex 0 32.673 -1.36197
      vertex 55 32.1213 -2.12132
    endloop
  endfacet
  facet normal 0 0.809017 -0.587786
    outer loop
      vertex 55 32.1213 -2.12132
      vertex 0 32.673 -1.36197
      vertex 55 32.673 -1.36197
    endloop
  endfacet
  facet normal 0.127097 0.802456 -0.583019
    outer loop
      vertex 55.826 32.5422 -1.36197
      vertex 55 32.1213 -2.12132
      vertex 55 32.673 -1.36197
    endloop
  endfacet
  facet normal 0.127096 0.802457 -0.583018
    outer loop
      vertex 55.6555 32.0175 -2.12132
      vertex 55 32.1213 -2.12132
      vertex 55.826 32.5422 -1.36197
    endloop
  endfacet
  facet normal 0.368849 0.723906 -0.583018
    outer loop
      vertex 56.5712 32.1625 -1.36197
      vertex 55.6555 32.0175 -2.12132
      vertex 55.826 32.5422 -1.36197
    endloop
  endfacet
  facet normal 0.368849 0.723906 -0.583018
    outer loop
      vertex 56.2469 31.7162 -2.12132
      vertex 55.6555 32.0175 -2.12132
      vertex 56.5712 32.1625 -1.36197
    endloop
  endfacet
  facet normal 0.574495 0.574495 -0.583018
    outer loop
      vertex 56.2469 31.7162 -2.12132
      vertex 56.5712 32.1625 -1.36197
      vertex 56.7162 31.2469 -2.12132
    endloop
  endfacet
  facet normal 0.574495 0.574495 -0.583018
    outer loop
      vertex 56.7162 31.2469 -2.12132
      vertex 56.5712 32.1625 -1.36197
      vertex 57.1625 31.5712 -1.36197
    endloop
  endfacet
  facet normal 0.723906 0.368849 -0.583018
    outer loop
      vertex 57.5422 30.826 -1.36197
      vertex 56.7162 31.2469 -2.12132
      vertex 57.1625 31.5712 -1.36197
    endloop
  endfacet
  facet normal 0.723906 0.368849 -0.583018
    outer loop
      vertex 57.0175 30.6555 -2.12132
      vertex 56.7162 31.2469 -2.12132
      vertex 57.5422 30.826 -1.36197
    endloop
  endfacet
  facet normal 0.802456 0.127097 -0.583018
    outer loop
      vertex 57.673 30 -1.36197
      vertex 57.0175 30.6555 -2.12132
      vertex 57.5422 30.826 -1.36197
    endloop
  endfacet
  facet normal 0.802456 0.127096 -0.583019
    outer loop
      vertex 57.1213 30 -2.12132
      vertex 57.0175 30.6555 -2.12132
      vertex 57.673 30 -1.36197
    endloop
  endfacet
  facet normal 0.809017 0 -0.587786
    outer loop
      vertex 57.673 0 -1.36197
      vertex 57.1213 0 -2.12132
      vertex 57.1213 30 -2.12132
    endloop
  endfacet
  facet normal 0.809017 0 -0.587786
    outer loop
      vertex 57.673 30 -1.36197
      vertex 57.673 0 -1.36197
      vertex 57.1213 30 -2.12132
    endloop
  endfacet
  facet normal 0.802456 -0.127097 -0.583019
    outer loop
      vertex 57.5422 -0.826008 -1.36197
      vertex 57.1213 0 -2.12132
      vertex 57.673 0 -1.36197
    endloop
  endfacet
  facet normal 0.802457 -0.127096 -0.583018
    outer loop
      vertex 57.5422 -0.826008 -1.36197
      vertex 57.0175 -0.655524 -2.12132
      vertex 57.1213 0 -2.12132
    endloop
  endfacet
  facet normal 0.723906 -0.368849 -0.583018
    outer loop
      vertex 57.1625 -1.57116 -1.36197
      vertex 57.0175 -0.655524 -2.12132
      vertex 57.5422 -0.826008 -1.36197
    endloop
  endfacet
  facet normal 0.723906 -0.368849 -0.583018
    outer loop
      vertex 57.1625 -1.57116 -1.36197
      vertex 56.7162 -1.24688 -2.12132
      vertex 57.0175 -0.655524 -2.12132
    endloop
  endfacet
  facet normal 0.574495 -0.574495 -0.583018
    outer loop
      vertex 56.2469 -1.71618 -2.12132
      vertex 56.7162 -1.24688 -2.12132
      vertex 56.5712 -2.16252 -1.36197
    endloop
  endfacet
  facet normal 0.574495 -0.574495 -0.583018
    outer loop
      vertex 56.5712 -2.16252 -1.36197
      vertex 56.7162 -1.24688 -2.12132
      vertex 57.1625 -1.57116 -1.36197
    endloop
  endfacet
  facet normal 0.368849 -0.723906 -0.583018
    outer loop
      vertex 56.5712 -2.16252 -1.36197
      vertex 55.826 -2.54219 -1.36197
      vertex 56.2469 -1.71618 -2.12132
    endloop
  endfacet
  facet normal 0.368849 -0.723906 -0.583018
    outer loop
      vertex 55.826 -2.54219 -1.36197
      vertex 55.6555 -2.0175 -2.12132
      vertex 56.2469 -1.71618 -2.12132
    endloop
  endfacet
  facet normal 0.127097 -0.802456 -0.583018
    outer loop
      vertex 55.826 -2.54219 -1.36197
      vertex 55 -2.67302 -1.36197
      vertex 55.6555 -2.0175 -2.12132
    endloop
  endfacet
  facet normal 0.127096 -0.802456 -0.583019
    outer loop
      vertex 55.6555 -2.0175 -2.12132
      vertex 55 -2.67302 -1.36197
      vertex 55 -2.12132 -2.12132
    endloop
  endfacet
  facet normal 0 -0.809017 -0.587786
    outer loop
      vertex 55 -2.67302 -1.36197
      vertex 0 -2.67302 -1.36197
      vertex 0 -2.12132 -2.12132
    endloop
  endfacet
  facet normal 0 -0.809017 -0.587786
    outer loop
      vertex 55 -2.12132 -2.12132
      vertex 55 -2.67302 -1.36197
      vertex 0 -2.12132 -2.12132
    endloop
  endfacet
  facet normal -0.127097 -0.802456 -0.583019
    outer loop
      vertex 0 -2.67302 -1.36197
      vertex -0.826008 -2.54219 -1.36197
      vertex 0 -2.12132 -2.12132
    endloop
  endfacet
  facet normal -0.127096 -0.802457 -0.583018
    outer loop
      vertex 0 -2.12132 -2.12132
      vertex -0.826008 -2.54219 -1.36197
      vertex -0.655524 -2.0175 -2.12132
    endloop
  endfacet
  facet normal 0 1 0
    outer loop
      vertex 21.5 5 0
      vertex 21.5 5 30
      vertex 23.5 5 0
    endloop
  endfacet
  facet normal 0 1 0
    outer loop
      vertex 23.5 5 0
      vertex 21.5 5 30
      vertex 23.5 5 30
    endloop
  endfacet
  facet normal -1 0 0
    outer loop
      vertex 21.5 5 30
      vertex 21.5 5 0
      vertex 21.5 2.3 30
    endloop
  endfacet
  facet normal -1 0 0
    outer loop
      vertex 21.5 2.3 30
      vertex 21.5 5 0
      vertex 21.5 2.3 0
    endloop
  endfacet
  facet normal 0 -1 0
    outer loop
      vertex 22.1 2.3 0
      vertex 22.1 2.3 30
      vertex 21.5 2.3 30
    endloop
  endfacet
  facet normal 0 -1 0
    outer loop
      vertex 21.5 2.3 0
      vertex 22.1 2.3 0
      vertex 21.5 2.3 30
    endloop
  endfacet
  facet normal -1 0 0
    outer loop
      vertex 22.1 2.3 30
      vertex 22.1 2.3 0
      vertex 22.1 0.5 30
    endloop
  endfacet
  facet normal -1 0 0
    outer loop
      vertex 22.1 0.5 30
      vertex 22.1 2.3 0
      vertex 22.1 0.5 0
    endloop
  endfacet
  facet normal 1 0 0
    outer loop
      vertex 10.9 2.3 0
      vertex 10.9 2.3 30
      vertex 10.9 0.5 30
    endloop
  endfacet
  facet normal 1 0 0
    outer loop
      vertex 10.9 0.5 0
      vertex 10.9 2.3 0
      vertex 10.9 0.5 30
    endloop
  endfacet
  facet normal 0 -1 0
    outer loop
      vertex 11.5 2.3 0
      vertex 11.5 2.3 30
      vertex 10.9 2.3 30
    endloop
  endfacet
  facet normal 0 -1 0
    outer loop
      vertex 10.9 2.3 0
      vertex 11.5 2.3 0
      vertex 10.9 2.3 30
    endloop
  endfacet
  facet normal 1 0 0
    outer loop
      vertex 11.5 5 0
      vertex 11.5 5 30
      vertex 11.5 2.3 30
    endloop
  endfacet
  facet normal 1 0 0
    outer loop
      vertex 11.5 2.3 0
      vertex 11.5 5 0
      vertex 11.5 2.3 30
    endloop
  endfacet
  facet normal 0 1 0
    outer loop
      vertex 9.5 5 0
      vertex 9.5 5 30
      vertex 11.5 5 0
    endloop
  endfacet
  facet normal 0 1 0
    outer loop
      vertex 11.5 5 0
      vertex 9.5 5 30
      vertex 11.5 5 30
    endloop
  endfacet
  facet normal 0 1 0
    outer loop
      vertex 30.5 -1 45
      vertex 30.5 -1 40
      vertex 24.5 -1 45
    endloop
  endfacet
  facet normal 0 1 0
    outer loop
      vertex 24.5 -1 45
      vertex 30.5 -1 40
      vertex 24.5 -1 40
    endloop
  endfacet
  facet normal 0 -1 0
    outer loop
      vertex 30.5 31 40
      vertex 30.5 31 45
      vertex 24.5 31 45
    endloop
  endfacet
  facet normal 0 -1 0
    outer loop
      vertex 24.5 31 40
      vertex 30.5 31 40
      vertex 24.5 31 45
    endloop
  endfacet
  facet normal -0.0926946 -0.585255 -0.805534
    outer loop
      vertex 0 -2.12132 -2.12132
      vertex -0.655524 -2.0175 -2.12132
      vertex 0 -1.36197 -2.67302
    endloop
  endfacet
  facet normal -0.0926945 -0.585255 -0.805533
    outer loop
      vertex 0 -1.36197 -2.67302
      vertex -0.655524 -2.0175 -2.12132
      vertex -0.420872 -1.29531 -2.67302
    endloop
  endfacet
  facet normal -0.0488845 -0.308647 -0.94992
    outer loop
      vertex 0 -1.36197 -2.67302
      vertex -0.420872 -1.29531 -2.67302
      vertex 0 -0.469303 -2.96306
    endloop
  endfacet
  facet normal -0.0488841 -0.308647 -0.94992
    outer loop
      vertex 0 -0.469303 -2.96306
      vertex -0.420872 -1.29531 -2.67302
      vertex -0.145023 -0.446334 -2.96306
    endloop
  endfacet
  facet normal 0 0 -1
    outer loop
      vertex -0.469303 0 -2.96306
      vertex -0.469303 30 -2.96306
      vertex -0.446334 -0.145023 -2.96306
    endloop
  endfacet
  facet normal 0 0 -1
    outer loop
      vertex -0.446334 -0.145023 -2.96306
      vertex -0.469303 30 -2.96306
      vertex -0.446334 30.145 -2.96306
    endloop
  endfacet
  facet normal 0 0 -1
    outer loop
      vertex -0.446334 -0.145023 -2.96306
      vertex -0.446334 30.145 -2.96306
      vertex -0.379674 30.2758 -2.96306
    endloop
  endfacet
  facet normal 0 0 -1
    outer loop
      vertex -0.446334 -0.145023 -2.96306
      vertex -0.379674 30.2758 -2.96306
      vertex -0.27585 30.3797 -2.96306
    endloop
  endfacet
  facet normal 0 0 -1
    outer loop
      vertex -0.446334 -0.145023 -2.96306
      vertex -0.27585 30.3797 -2.96306
      vertex -0.145023 30.4463 -2.96306
    endloop
  endfacet
  facet normal 0 0 -1
    outer loop
      vertex -0.446334 -0.145023 -2.96306
      vertex -0.145023 30.4463 -2.96306
      vertex 0 30.4693 -2.96306
    endloop
  endfacet
  facet normal 0 0 -1
    outer loop
      vertex -0.446334 -0.145023 -2.96306
      vertex 0 30.4693 -2.96306
      vertex 55 30.4693 -2.96306
    endloop
  endfacet
  facet normal 0 0 -1
    outer loop
      vertex -0.446334 -0.145023 -2.96306
      vertex 55 30.4693 -2.96306
      vertex 55.145 30.4463 -2.96306
    endloop
  endfacet
  facet normal 0 0 -1
    outer loop
      vertex -0.446334 -0.145023 -2.96306
      vertex 55.145 30.4463 -2.96306
      vertex 55.2758 30.3797 -2.96306
    endloop
  endfacet
  facet normal 0 0 -1
    outer loop
      vertex -0.446334 -0.145023 -2.96306
      vertex 55.2758 30.3797 -2.96306
      vertex 55.3797 30.2758 -2.96306
    endloop
  endfacet
  facet normal 0 0 -1
    outer loop
      vertex -0.446334 -0.145023 -2.96306
      vertex 55.3797 30.2758 -2.96306
      vertex 55.4463 30.145 -2.96306
    endloop
  endfacet
  facet normal 0 0 -1
    outer loop
      vertex -0.446334 -0.145023 -2.96306
      vertex 55.4463 30.145 -2.96306
      vertex 55.4693 30 -2.96306
    endloop
  endfacet
  facet normal 0 0 -1
    outer loop
      vertex -0.446334 -0.145023 -2.96306
      vertex 55.4693 30 -2.96306
      vertex 55.4693 0 -2.96306
    endloop
  endfacet
  facet normal 0 0 -1
    outer loop
      vertex -0.446334 -0.145023 -2.96306
      vertex 55.4693 0 -2.96306
      vertex 55.4463 -0.145023 -2.96306
    endloop
  endfacet
  facet normal 0 0 -1
    outer loop
      vertex -0.446334 -0.145023 -2.96306
      vertex 55.4463 -0.145023 -2.96306
      vertex 55.3797 -0.27585 -2.96306
    endloop
  endfacet
  facet normal 0 0 -1
    outer loop
      vertex -0.446334 -0.145023 -2.96306
      vertex 55.3797 -0.27585 -2.96306
      vertex 55.2758 -0.379674 -2.96306
    endloop
  endfacet
  facet normal 0 0 -1
    outer loop
      vertex -0.446334 -0.145023 -2.96306
      vertex 55.2758 -0.379674 -2.96306
      vertex 55.145 -0.446334 -2.96306
    endloop
  endfacet
  facet normal 0 0 -1
    outer loop
      vertex -0.446334 -0.145023 -2.96306
      vertex 55.145 -0.446334 -2.96306
      vertex 55 -0.469303 -2.96306
    endloop
  endfacet
  facet normal 0 0 -1
    outer loop
      vertex -0.446334 -0.145023 -2.96306
      vertex 55 -0.469303 -2.96306
      vertex 0 -0.469303 -2.96306
    endloop
  endfacet
  facet normal 0 0 -1
    outer loop
      vertex -0.446334 -0.145023 -2.96306
      vertex 0 -0.469303 -2.96306
      vertex -0.145023 -0.446334 -2.96306
    endloop
  endfacet
  facet normal 0 0 -1
    outer loop
      vertex -0.446334 -0.145023 -2.96306
      vertex -0.145023 -0.446334 -2.96306
      vertex -0.27585 -0.379674 -2.96306
    endloop
  endfacet
  facet normal 0 0 -1
    outer loop
      vertex -0.446334 -0.145023 -2.96306
      vertex -0.27585 -0.379674 -2.96306
      vertex -0.379674 -0.27585 -2.96306
    endloop
  endfacet
  facet normal -0.308647 0.0488841 -0.94992
    outer loop
      vertex -0.469303 30 -2.96306
      vertex -1.29531 30.4209 -2.67302
      vertex -0.446334 30.145 -2.96306
    endloop
  endfacet
  facet normal -0.278435 0.141869 -0.94992
    outer loop
      vertex -0.446334 30.145 -2.96306
      vertex -1.29531 30.4209 -2.67302
      vertex -1.10186 30.8005 -2.67302
    endloop
  endfacet
  facet normal -0.527966 0.269012 -0.805533
    outer loop
      vertex -1.29531 30.4209 -2.67302
      vertex -1.71618 31.2469 -2.12132
      vertex -1.10186 30.8005 -2.67302
    endloop
  endfacet
  facet normal -0.418996 0.418996 -0.805533
    outer loop
      vertex -1.71618 31.2469 -2.12132
      vertex -1.24688 31.7162 -2.12132
      vertex -1.10186 30.8005 -2.67302
    endloop
  endfacet
  facet normal -0.418996 0.418996 -0.805533
    outer loop
      vertex -1.10186 30.8005 -2.67302
      vertex -1.24688 31.7162 -2.12132
      vertex -0.800547 31.1019 -2.67302
    endloop
  endfacet
  facet normal -0.269013 0.527966 -0.805533
    outer loop
      vertex -0.800547 31.1019 -2.67302
      vertex -1.24688 31.7162 -2.12132
      vertex -0.655524 32.0175 -2.12132
    endloop
  endfacet
  facet normal -0.269012 0.527966 -0.805534
    outer loop
      vertex -0.420872 31.2953 -2.67302
      vertex -0.800547 31.1019 -2.67302
      vertex -0.655524 32.0175 -2.12132
    endloop
  endfacet
  facet normal -0.0926946 0.585255 -0.805533
    outer loop
      vertex -0.420872 31.2953 -2.67302
      vertex -0.655524 32.0175 -2.12132
      vertex 0 32.1213 -2.12132
    endloop
  endfacet
  facet normal -0.0926945 0.585255 -0.805534
    outer loop
      vertex 0 31.362 -2.67302
      vertex -0.420872 31.2953 -2.67302
      vertex 0 32.1213 -2.12132
    endloop
  endfacet
  facet normal 0 0.587786 -0.809017
    outer loop
      vertex 0 31.362 -2.67302
      vertex 0 32.1213 -2.12132
      vertex 55 31.362 -2.67302
    endloop
  endfacet
  facet normal 0 0.587786 -0.809017
    outer loop
      vertex 55 31.362 -2.67302
      vertex 0 32.1213 -2.12132
      vertex 55 32.1213 -2.12132
    endloop
  endfacet
  facet normal 0.0926946 0.585255 -0.805534
    outer loop
      vertex 55.6555 32.0175 -2.12132
      vertex 55 31.362 -2.67302
      vertex 55 32.1213 -2.12132
    endloop
  endfacet
  facet normal 0.0926945 0.585255 -0.805533
    outer loop
      vertex 55.4209 31.2953 -2.67302
      vertex 55 31.362 -2.67302
      vertex 55.6555 32.0175 -2.12132
    endloop
  endfacet
  facet normal 0.269013 0.527966 -0.805534
    outer loop
      vertex 56.2469 31.7162 -2.12132
      vertex 55.4209 31.2953 -2.67302
      vertex 55.6555 32.0175 -2.12132
    endloop
  endfacet
  facet normal 0.269012 0.527966 -0.805533
    outer loop
      vertex 55.8005 31.1019 -2.67302
      vertex 55.4209 31.2953 -2.67302
      vertex 56.2469 31.7162 -2.12132
    endloop
  endfacet
  facet normal 0.418996 0.418996 -0.805533
    outer loop
      vertex 55.8005 31.1019 -2.67302
      vertex 56.2469 31.7162 -2.12132
      vertex 56.1019 30.8005 -2.67302
    endloop
  endfacet
  facet normal 0.418996 0.418996 -0.805533
    outer loop
      vertex 56.1019 30.8005 -2.67302
      vertex 56.2469 31.7162 -2.12132
      vertex 56.7162 31.2469 -2.12132
    endloop
  endfacet
  facet normal 0.527966 0.269013 -0.805533
    outer loop
      vertex 57.0175 30.6555 -2.12132
      vertex 56.1019 30.8005 -2.67302
      vertex 56.7162 31.2469 -2.12132
    endloop
  endfacet
  facet normal 0.527966 0.269012 -0.805534
    outer loop
      vertex 56.2953 30.4209 -2.67302
      vertex 56.1019 30.8005 -2.67302
      vertex 57.0175 30.6555 -2.12132
    endloop
  endfacet
  facet normal 0.585255 0.0926946 -0.805533
    outer loop
      vertex 57.1213 30 -2.12132
      vertex 56.2953 30.4209 -2.67302
      vertex 57.0175 30.6555 -2.12132
    endloop
  endfacet
  facet normal 0.585255 0.0926945 -0.805534
    outer loop
      vertex 56.362 30 -2.67302
      vertex 56.2953 30.4209 -2.67302
      vertex 57.1213 30 -2.12132
    endloop
  endfacet
  facet normal 0.587786 0 -0.809017
    outer loop
      vertex 56.362 0 -2.67302
      vertex 56.362 30 -2.67302
      vertex 57.1213 0 -2.12132
    endloop
  endfacet
  facet normal 0.587786 0 -0.809017
    outer loop
      vertex 57.1213 0 -2.12132
      vertex 56.362 30 -2.67302
      vertex 57.1213 30 -2.12132
    endloop
  endfacet
  facet normal 0.585255 -0.0926946 -0.805534
    outer loop
      vertex 57.0175 -0.655524 -2.12132
      vertex 56.362 0 -2.67302
      vertex 57.1213 0 -2.12132
    endloop
  endfacet
  facet normal 0.585255 -0.0926945 -0.805533
    outer loop
      vertex 57.0175 -0.655524 -2.12132
      vertex 56.2953 -0.420872 -2.67302
      vertex 56.362 0 -2.67302
    endloop
  endfacet
  facet normal 0.527966 -0.269013 -0.805534
    outer loop
      vertex 56.7162 -1.24688 -2.12132
      vertex 56.2953 -0.420872 -2.67302
      vertex 57.0175 -0.655524 -2.12132
    endloop
  endfacet
  facet normal 0.527966 -0.269012 -0.805533
    outer loop
      vertex 56.7162 -1.24688 -2.12132
      vertex 56.1019 -0.800547 -2.67302
      vertex 56.2953 -0.420872 -2.67302
    endloop
  endfacet
  facet normal 0.418996 -0.418996 -0.805533
    outer loop
      vertex 55.8005 -1.10186 -2.67302
      vertex 56.1019 -0.800547 -2.67302
      vertex 56.2469 -1.71618 -2.12132
    endloop
  endfacet
  facet normal 0.418996 -0.418996 -0.805533
    outer loop
      vertex 56.2469 -1.71618 -2.12132
      vertex 56.1019 -0.800547 -2.67302
      vertex 56.7162 -1.24688 -2.12132
    endloop
  endfacet
  facet normal 0.269013 -0.527966 -0.805533
    outer loop
      vertex 56.2469 -1.71618 -2.12132
      vertex 55.6555 -2.0175 -2.12132
      vertex 55.8005 -1.10186 -2.67302
    endloop
  endfacet
  facet normal 0.269012 -0.527966 -0.805534
    outer loop
      vertex 55.6555 -2.0175 -2.12132
      vertex 55.4209 -1.29531 -2.67302
      vertex 55.8005 -1.10186 -2.67302
    endloop
  endfacet
  facet normal 0.0926946 -0.585255 -0.805533
    outer loop
      vertex 55.6555 -2.0175 -2.12132
      vertex 55 -2.12132 -2.12132
      vertex 55.4209 -1.29531 -2.67302
    endloop
  endfacet
  facet normal 0.0926945 -0.585255 -0.805534
    outer loop
      vertex 55.4209 -1.29531 -2.67302
      vertex 55 -2.12132 -2.12132
      vertex 55 -1.36197 -2.67302
    endloop
  endfacet
  facet normal 0 -0.587786 -0.809017
    outer loop
      vertex 0 -2.12132 -2.12132
      vertex 0 -1.36197 -2.67302
      vertex 55 -2.12132 -2.12132
    endloop
  endfacet
  facet normal 0 -0.587786 -0.809017
    outer loop
      vertex 55 -2.12132 -2.12132
      vertex 0 -1.36197 -2.67302
      vertex 55 -1.36197 -2.67302
    endloop
  endfacet
  facet normal 0 -0.309017 -0.951057
    outer loop
      vertex 0 -1.36197 -2.67302
      vertex 0 -0.469303 -2.96306
      vertex 55 -1.36197 -2.67302
    endloop
  endfacet
  facet normal 0 -0.309017 -0.951057
    outer loop
      vertex 55 -1.36197 -2.67302
      vertex 0 -0.469303 -2.96306
      vertex 55 -0.469303 -2.96306
    endloop
  endfacet
  facet normal 0.0488841 -0.308647 -0.94992
    outer loop
      vertex 55.145 -0.446334 -2.96306
      vertex 55 -1.36197 -2.67302
      vertex 55 -0.469303 -2.96306
    endloop
  endfacet
  facet normal 0.14187 -0.278434 -0.94992
    outer loop
      vertex 55.4209 -1.29531 -2.67302
      vertex 55.145 -0.446334 -2.96306
      vertex 55.2758 -0.379674 -2.96306
    endloop
  endfacet
  facet normal 0.0488845 -0.308647 -0.94992
    outer loop
      vertex 55.4209 -1.29531 -2.67302
      vertex 55 -1.36197 -2.67302
      vertex 55.145 -0.446334 -2.96306
    endloop
  endfacet
  facet normal 0.141869 -0.278435 -0.94992
    outer loop
      vertex 55.4209 -1.29531 -2.67302
      vertex 55.2758 -0.379674 -2.96306
      vertex 55.8005 -1.10186 -2.67302
    endloop
  endfacet
  facet normal 0.220967 -0.220967 -0.94992
    outer loop
      vertex 55.2758 -0.379674 -2.96306
      vertex 55.3797 -0.27585 -2.96306
      vertex 55.8005 -1.10186 -2.67302
    endloop
  endfacet
  facet normal 0.220967 -0.220967 -0.94992
    outer loop
      vertex 55.8005 -1.10186 -2.67302
      vertex 55.3797 -0.27585 -2.96306
      vertex 56.1019 -0.800547 -2.67302
    endloop
  endfacet
  facet normal 0.278434 -0.14187 -0.94992
    outer loop
      vertex 56.1019 -0.800547 -2.67302
      vertex 55.3797 -0.27585 -2.96306
      vertex 55.4463 -0.145023 -2.96306
    endloop
  endfacet
  facet normal 0.308647 -0.0488841 -0.94992
    outer loop
      vertex 56.2953 -0.420872 -2.67302
      vertex 55.4463 -0.145023 -2.96306
      vertex 55.4693 0 -2.96306
    endloop
  endfacet
  facet normal 0.278435 -0.141869 -0.94992
    outer loop
      vertex 56.1019 -0.800547 -2.67302
      vertex 55.4463 -0.145023 -2.96306
      vertex 56.2953 -0.420872 -2.67302
    endloop
  endfacet
  facet normal 0.308647 -0.0488845 -0.94992
    outer loop
      vertex 56.2953 -0.420872 -2.67302
      vertex 55.4693 0 -2.96306
      vertex 56.362 0 -2.67302
    endloop
  endfacet
  facet normal 0.309017 0 -0.951057
    outer loop
      vertex 55.4693 0 -2.96306
      vertex 55.4693 30 -2.96306
      vertex 56.362 0 -2.67302
    endloop
  endfacet
  facet normal 0.309017 0 -0.951057
    outer loop
      vertex 56.362 0 -2.67302
      vertex 55.4693 30 -2.96306
      vertex 56.362 30 -2.67302
    endloop
  endfacet
  facet normal 0.308647 0.0488841 -0.94992
    outer loop
      vertex 55.4693 30 -2.96306
      vertex 55.4463 30.145 -2.96306
      vertex 56.362 30 -2.67302
    endloop
  endfacet
  facet normal 0.308647 0.0488845 -0.94992
    outer loop
      vertex 56.362 30 -2.67302
      vertex 55.4463 30.145 -2.96306
      vertex 56.2953 30.4209 -2.67302
    endloop
  endfacet
  facet normal 0.278434 0.14187 -0.94992
    outer loop
      vertex 55.4463 30.145 -2.96306
      vertex 55.3797 30.2758 -2.96306
      vertex 56.2953 30.4209 -2.67302
    endloop
  endfacet
  facet normal 0.278435 0.141869 -0.94992
    outer loop
      vertex 56.2953 30.4209 -2.67302
      vertex 55.3797 30.2758 -2.96306
      vertex 56.1019 30.8005 -2.67302
    endloop
  endfacet
  facet normal 0.220967 0.220967 -0.94992
    outer loop
      vertex 55.2758 30.3797 -2.96306
      vertex 55.8005 31.1019 -2.67302
      vertex 55.3797 30.2758 -2.96306
    endloop
  endfacet
  facet normal 0.220967 0.220967 -0.94992
    outer loop
      vertex 55.3797 30.2758 -2.96306
      vertex 55.8005 31.1019 -2.67302
      vertex 56.1019 30.8005 -2.67302
    endloop
  endfacet
  facet normal 0.14187 0.278434 -0.94992
    outer loop
      vertex 55.2758 30.3797 -2.96306
      vertex 55.145 30.4463 -2.96306
      vertex 55.8005 31.1019 -2.67302
    endloop
  endfacet
  facet normal 0.141869 0.278435 -0.94992
    outer loop
      vertex 55.8005 31.1019 -2.67302
      vertex 55.145 30.4463 -2.96306
      vertex 55.4209 31.2953 -2.67302
    endloop
  endfacet
  facet normal 0.0488841 0.308647 -0.94992
    outer loop
      vertex 55.145 30.4463 -2.96306
      vertex 55 30.4693 -2.96306
      vertex 55.4209 31.2953 -2.67302
    endloop
  endfacet
  facet normal 0.0488845 0.308647 -0.94992
    outer loop
      vertex 55.4209 31.2953 -2.67302
      vertex 55 30.4693 -2.96306
      vertex 55 31.362 -2.67302
    endloop
  endfacet
  facet normal 0 0.309017 -0.951057
    outer loop
      vertex 0 30.4693 -2.96306
      vertex 0 31.362 -2.67302
      vertex 55 30.4693 -2.96306
    endloop
  endfacet
  facet normal 0 0.309017 -0.951057
    outer loop
      vertex 55 30.4693 -2.96306
      vertex 0 31.362 -2.67302
      vertex 55 31.362 -2.67302
    endloop
  endfacet
  facet normal -0.0488841 0.308647 -0.94992
    outer loop
      vertex 0 30.4693 -2.96306
      vertex -0.145023 30.4463 -2.96306
      vertex 0 31.362 -2.67302
    endloop
  endfacet
  facet normal -0.0488845 0.308647 -0.94992
    outer loop
      vertex -0.145023 30.4463 -2.96306
      vertex -0.420872 31.2953 -2.67302
      vertex 0 31.362 -2.67302
    endloop
  endfacet
  facet normal -0.14187 0.278434 -0.94992
    outer loop
      vertex -0.27585 30.3797 -2.96306
      vertex -0.420872 31.2953 -2.67302
      vertex -0.145023 30.4463 -2.96306
    endloop
  endfacet
  facet normal -0.141869 0.278435 -0.94992
    outer loop
      vertex -0.27585 30.3797 -2.96306
      vertex -0.800547 31.1019 -2.67302
      vertex -0.420872 31.2953 -2.67302
    endloop
  endfacet
  facet normal -0.220967 0.220967 -0.94992
    outer loop
      vertex -1.10186 30.8005 -2.67302
      vertex -0.800547 31.1019 -2.67302
      vertex -0.379674 30.2758 -2.96306
    endloop
  endfacet
  facet normal -0.220967 0.220967 -0.94992
    outer loop
      vertex -0.379674 30.2758 -2.96306
      vertex -0.800547 31.1019 -2.67302
      vertex -0.27585 30.3797 -2.96306
    endloop
  endfacet
  facet normal -0.278434 0.14187 -0.94992
    outer loop
      vertex -0.446334 30.145 -2.96306
      vertex -1.10186 30.8005 -2.67302
      vertex -0.379674 30.2758 -2.96306
    endloop
  endfacet
endsolid OpenSCAD_Model
